My Website test
…
library(nycflights13)

## Warning: Paket 'nycflights13' wurde unter R Version 4.2.3 erstellt

flights |> 
  filter(arr_delay > 0) |> 
  group_by(year, month, day) |> 
  summarize(
    behind = mean(arr_delay),
    n = n(),
    .groups = "drop"
  )

## # A tibble: 365 × 5
##     year month   day behind     n
##    <int> <int> <int>  <dbl> <int>
##  1  2013     1     1   32.5   461
##  2  2013     1     2   32.0   535
##  3  2013     1     3   27.7   460
##  4  2013     1     4   28.3   297
##  5  2013     1     5   22.6   238
##  6  2013     1     6   24.4   381
##  7  2013     1     7   27.8   243
##  8  2013     1     8   20.8   275
##  9  2013     1     9   25.6   287
## 10  2013     1    10   27.3   220
## # ℹ 355 more rows
…
